{
    "countries": [
        { "id": 1, "code": "HN", "name": "Honduras" },
        { "id": 2, "code": "GT", "name": "Guatemala" },
        { "id": 3, "code": "CR", "name": "Costa Rica" },
        { "id": 4, "code": "SV", "name": "El Salvador" },
        { "id": 5, "code": "NI", "name": "Nicaragua" }
    ],
    "cities": [
        { "id": 1, "code": "SPS", "country": "HN", "name": "San Pedro Sula" },
        { "id": 2, "code": "TGU", "country": "HN", "name": "Tegucigalpa" },
        { "id": 3, "code": "LCE", "country": "HN", "name": "La Ceiba" },
        { "id": 4, "code": "VIL", "country": "HN", "name": "Villanueva" },
        { "id": 5, "code": "ANT", "country": "GT", "name": "Antigua" },
        { "id": 6, "code": "PET", "country": "GT", "name": "Peten" },
        { "id": 7, "code": "SSL", "country": "CR", "name": "San Salvador" },
        { "id": 8, "code": "SJS", "country": "SV", "name": "San Jose" }
    ]
}

